State,Body,Name,District,Party,City/Region,Number1,LocalNumber,Email,Position
CO,House,Jeni James Arndt,53,D,,303-866-2917,,jeni.arndt.house@state.co.us,
CO,House,Mark Baisley,39,R,,303-866-2935,,mark.baisley.house@state.co.us,
CO,House,KC Becker,13,D,,303-866-2578,,kcbecker.house@state.co.us,
CO,House,Susan Beckman,38,R,,,,,
CO,House,Adrienne Benavidez,32,D,,303-866-2964,,adrienne.benavidez.house@state.co.us,
CO,House,Shannon Bird,35,D,,303-866-2843,,Shannon.bird.house@state.co.us,
CO,House,Rod Bockenfeld,56,R,,303-866-2912,,rod.bockenfeld.house@state.co.us,
CO,House,Perry Buck,49,R,,303-866-2907,,perrybuck49@gmail.com,
CO,House,Janet Buckner,40,D,,303-866-2944,,janet.buckner.house@state.co.us,
CO,House,Bri Buentello,47,D,,303-866-2905,,bri.buentello.house@state.co.us,
CO,House,Yadira Caraveo,31,D,,303-866-2918,,yadira.caraveo.house@state.co.us,
CO,House,Terri Carver,20,R,,303-866-2191,,terri.carver.house@state.co.us,
CO,House,Marc Catlin,58,R,,303-866-2955,,marc.catlin.house@state.co.us,
CO,House,Richard Champion,38,R,,303-866-2953,,richard.champion.house@state.co.us,
CO,House,James Coleman,7,D,,303-866-2909,,james.coleman.house@state.co.us,
CO,House,Lisa Cutter,25,D,,303-866-2582,,lisa.cutter.house@state.co.us,
CO,House,Monica Duran,24,D,,303-866-5522,,monica.duran.house@state.co.us,
CO,House,Daneya Esgar,46,D,,303-866-2968,,daneya.esgar.house@state.co.us,
CO,House,Tony Exum,17,D,,303-866-3069,,tony.exum.house@state.co.us,
CO,House,Meg Froelich,3,D,,303-866-2921,,meg.froelich.house@state.co.us,
CO,House,Alec Garnett,2,D,,303-866-2911,,alec.garnett.house@state.co.us,
CO,House,Tim Geitner,19,R,,303-866-2924,,tim.geitner.house@state.co.us,
CO,House,Serena Gonzales-Gutierrez,4,D,,303-866-2954,,serena.gonzales-gutierrez.house@state.co.us,
CO,House,Matt Gray,33,D,,303-866-4667,,matt@matthewgray.us,
CO,House,Leslie Herod,8,D,,303-866-2959,,leslie.herod.house@state.co.us,
CO,House,Richard Holtorf ,64,R,,303-866-2398,,richard.holtorf.house@state.co.us,
CO,House,Edie Hooton,10,D,,303-866-2915,,edie.hooton.house@state.co.us,
CO,House,Stephen Humphrey,48,R,,303-866-2943,,rephumphrey48@yahoo.com,
CO,House,Dominique Jackson,42,D,,303-866-3911,,dominique.jackson.house@state.co.us,
CO,House,Sonya Jaquez Lewis,12,D,,303-866-2920,,sonya.jaquez.lewis.house@state.co.us,
CO,House,Chris Kennedy,23,D,,303-866-2951,,chris.kennedy.house@state.co.us,
CO,House,Cathy Kipp,52,D,,303-866-4569,,cathy.kipp.house@state.co.us,
CO,House,Tracy Kraft-Tharp,29,D,,303-866-2950,,reptracy29@gmail.com,
CO,House,Lois Landgraf,21,R,,303-866-2946,,lois.landgraf.house@state.co.us,
CO,House,Colin Larson,22,R,,303-866-2927,,colin.larson.house@state.co.us,
CO,House,Larry Liston,16,R,,303-866-2937,,larry.liston.house@state.co.us,
CO,House,Susan Lontine,1,D,,303-866-2966,,susan.lontine.house@state.co.us,
CO,House,Julie McCluskie,61,D,,303-866-2952,,Julie.mccluskie.house@state.co.us,
CO,House,Hugh McKean,51,R,,303-866-2947,,hugh.mckean.house@state.co.us,
CO,House,Barbara McLachlan,59,D,,303-866-2914,,barbara.mclachlan.house@state.co.us,
CO,House,Jovan Melton,41,D,,303-866-2919,,jovan.melton.house@state.co.us,
CO,House,Dafna Michaelson Jenet,30,D,,303-866-2945,,dafna.michaelson.jenet.house@state.co.us,
CO,House,Kyle Mullica,34,D,,303-866-2931,,kyle.mullica.house@state.co.us,
CO,House,Patrick Neville,45,R,,303-866-5523,,patrick.neville.house@state.co.us,
CO,House,Rod Pelton,65,R,,303-866-3706,,rod.pelton.house@state.co.us,
CO,House,Kim Ransom,44,R,,303-866-2933,,kim.ransom.house@state.co.us,
CO,House,Janice Rich,55,R,,303-866-3068,,janice.rich.house@state.co.us,
CO,House,Dylan Roberts,26,D,,303-866-2923,,dylan.roberts.house@state.co.us,
CO,House,Lori Saine,63,R,,303-866-2906,,lori.saine.house@state.co.us,
CO,House,Shane Sandridge,14,R,,303-866-2965,,shane.sandridge.house@state.co.us,
CO,House,Jonathan Singer,11,D,,303-866-2780,,jonathan.singer.house@state.co.us,
CO,House,Emily Sirota,9,D,,303-866-2910,,emily.sirota.house@state.co.us,
CO,House,Marc Snyder,18,D,,303-866-2932,,marc.snyder.house@state.co.us,
CO,House,Matt Soper,54,R,,303-866-2583,,matthew.soper.house@state.co.us,
CO,House,Tom Sullivan,37,D,,303-866-5510,,tom.sullivan.house@state.co.us,
CO,House,Kerry Tipper,28,D,,303-866-2939,,kerry.tipper.house@state.co.us,
CO,House,Brianna Titone,27,D,,303-866-2962,,brianna.titone.house@state.co.us,
CO,House,Alex Valdez,5,D,,303-866-2925,,alex.valdez.house@state.co.us,
CO,House,Donald Valdez,62,D,,303-866-2916,,donald.valdez.house@state.co.us,
CO,House,Kevin Van Winkle,43,R,,303-866-2936,,kevin.vanwinkle.house@state.co.us,
CO,House,Mike Weissman,36,D,,303-866-2942,,mike.weissman.house@state.co.us,
CO,House,Perry Will,57,R,,303-866-2949,,perry.will.house@state.co.us,
CO,House,Dave Williams,15,R,,303-866-5525,,dave.williams.house@state.co.us,
CO,House,James Wilson,60,R,,303-866-2747,,representativewilson@gmail.com,
CO,House,Steven Woodrow,6,D,,303-866-2967,,steven.woodrow.house@state.co.us,
CO,House,Mary Young,50,D,,303-866-2929,,mary.young.house@state.co.us,
CO,Senate,Jeff Bridges,26,D,,303-866-4846,,jeff.bridges.senate@state.co.us,
CO,Senate,John Cooke,13,R,,303-866-4451,,john.cooke.senate@state.co.us,
CO,Senate,Don Coram,6,R,,303-866-4884,,don.coram.senate@state.co.us,
CO,Senate,Lois Court,31,D,,303-866-4861,,lois.court.senate@state.co.us,
CO,Senate,Larry Crowder,35,R,,303-866-4875,,larry.crowder.senate@state.co.us,
CO,Senate,Jessie Danielson,20,D,,303-866-4856,,jessie.danielson.senate@state.co.us,
CO,Senate,Kerry Donovan,5,D,,303-866-4871,,kerry.donovan.senate@state.co.us,
CO,Senate,Stephen Fenberg,18,D,,303-866-4872,,stephen.fenberg.senate@state.co.us,
CO,Senate,Rhonda Fields,29,D,,303-866-4879,,rhonda.fields.senate@state.co.us,
CO,Senate,Mike Foote,17,D,,303-866-5291,,mike.foote.senate@state.co.us,
CO,Senate,Leroy Garcia,3,D,,303-866-4878,,leroy.garcia.senate@state.co.us,
CO,Senate,Bob Gardner,12,R,,303-866-4880,,bob.gardner.senate@state.co.us,
CO,Senate,Joann Ginal,14,D,,303-866-4841,,joannginal52@gmail.com,
CO,Senate,Julie Gonzales,34,D,,303-866-4862,,julie.gonzales.senate@state.co.us,
CO,Senate,Chris Hansen,31,D,,303-866-4861,,chris.hansen.senate@state.co.us,
CO,Senate,Owen Hill,10,R,,303-866-2737,,owen.hill.senate@state.co.us,
CO,Senate,Dennis Hisey,2,R,,303-866-4877,,dennis.hisey.senate@state.co.us,
CO,Senate,Chris Holbert,30,R,,303-866-4881,,chris.holbert.senate@state.co.us,
CO,Senate,Pete Lee,11,D,,303-866-6364,,pete.lee.senate@state.co.us,
CO,Senate,Paul Lundeen,9,R,,303-866-4835,,paul.lundeen.senate@state.co.us,
CO,Senate,Vicki Marble,23,R,,303-866-4876,,vicki.marble.senate@state.co.us,
CO,Senate,Dominick Moreno,21,D,,303-866-4857,,dominick.moreno.senate@state.co.us,
CO,Senate,Brittany Pettersen,22,D,,303-866-4859,,brittany.pettersen.senate@state.co.us,
CO,Senate,Kevin Priola,25,R,,303-866-4855,,kpriola@gmail.com,
CO,Senate,Bob Rankin,8,R,,303-866-5292,,bob.rankin.senate@state.co.us,
CO,Senate,Robert Rodriguez,32,D,,303-866-4852,,robert.rodriguez.senate@state.co.us,
CO,Senate,Ray Scott,7,R,,303-866-3077,,ray.scott.senate@state.co.us,
CO,Senate,Jim Smallwood,4,R,,303-866-4869,,senatorsmallwood@gmail.com,
CO,Senate,Jerry Sonnenberg,1,R,,303-866-6360,,senatorsonnenberg@gmail.com,
CO,Senate,Tammy Story,16,D,,303-866-4873,,tammy.story.senate@state.co.us,
CO,Senate,Jack Tate,27,R,,303-866-4883,,jack.tate.senate@state.co.us,
CO,Senate,Nancy Todd,28,D,,303-866-3432,,nancy.todd.senate@state.co.us,
CO,Senate,Angela Williams,33,D,,303-866-4864,,angela.williams.senate@state.co.us,
CO,Senate,Faith Winter,24,D,,303-866-4863,,faith.winter.senate@state.co.us,
CO,Senate,Rob Woodward,15,R,,303-866-4853,,rob.woodward.senate@state.co.us,
CO,Senate,Rachel Zenzinger,19,D,,303-866-4840,,senatorrachelz@gmail.com,