State,Body,Name,District,Party,City/Region,Number1,LocalNumber,Email,Position
UT,House,Joel Ferry,1,R,"Box Elder, Cache",435-465-8887,,jferry@le.utah.gov,
UT,House,Jefferson Moss,2,R,Utah,385-250-6738,,jeffersonmoss@le.utah.gov,
UT,House,Val K. Potter,3,R,Cache,435-757-9834,,valpotter@le.utah.gov,
UT,House,Dan N. Johnson,4,R,Cache,435-770-7051,,dnjohnson@le.utah.gov,
UT,House,Casey Snider,5,R,Cache,435-890-3383,,csnider@le.utah.gov,
UT,House,A. Cory Maloy,6,R,Utah,801-477-0019,,corymaloy@le.utah.gov,
UT,House,Kyle R. Andersen,7,R,Weber,385-239-1523,,kyleandersen@le.utah.gov,
UT,House,Steve Waldrip,8,R,Weber,801-389-9329,,swaldrip@le.utah.gov,
UT,House,Calvin R. Musselman,9,R,Weber,801-773-1777,,cmusselman@le.utah.gov,
UT,House,Lawanna Shurtliff,10,D,Weber,,,lmshurtliff@le.utah.gov,
UT,House,Kelly B. Miles,11,R,"Davis, Weber",,,kmiles@le.utah.gov,
UT,House,Mike Schultz,12,R,"Davis, Weber",801-859-7713,,mikeschultz@le.utah.gov,
UT,House,Paul Ray,13,R,Davis,801-725-2719,,pray@le.utah.gov,
UT,House,Karianne Lisonbee,14,R,Davis,801-589-2934,,karilisonbee@le.utah.gov,
UT,House,Brad R. Wilson,15,R,Davis,801-538-1029,,bradwilson@le.utah.gov,
UT,House,Stephen G. Handy,16,R,Davis,801-979-8711,,stevehandy@le.utah.gov,
UT,House,Stewart E. Barlow,17,R,Davis,801-289-6699,,sbarlow@le.utah.gov,
UT,House,Timothy D. Hawkes,18,R,Davis,801-928-9008,,thawkes@le.utah.gov,
UT,House,Raymond P. Ward,19,R,Davis,801-440-8765,,rayward@le.utah.gov,
UT,House,Melissa G. Ballard,20,R,Davis,801-633-6561,,mballard@le.utah.gov,
UT,House,Douglas V. Sagers,21,R,Tooele,435-843-3754,,dougsagers@le.utah.gov,
UT,House,Susan Duckworth,22,D,Salt Lake,,,sduckworth@le.utah.gov,
UT,House,Sandra Hollins,23,D,Salt Lake,,,shollins@le.utah.gov,
UT,House,Jennifer Dailey-Provost,24,D,Salt Lake,385-321-7827,,jdprovost@le.utah.gov,
UT,House,Joel K. Briscoe,25,D,Salt Lake,801-946-9791,,jbriscoe@le.utah.gov,
UT,House,Angela Romero,26,D,Salt Lake,801-722-4972,,angelaromero@le.utah.gov,
UT,House,Brady Brammer,27,R,Utah,801-839-4653,,bbrammer@le.utah.gov,
UT,House,Brian S. King,28,D,"Salt Lake, Summit",801-532-1739,,briansking@le.utah.gov,
UT,House,Lee B. Perry,29,R,"Box Elder, Weber",435-225-0430,,leeperry@le.utah.gov,
UT,House,Mike Winder,30,R,Salt Lake,801-633-1300,,mikewinder@le.utah.gov,
UT,House,Elizabeth Weight,31,D,Salt Lake,,,elizabethweight@le.utah.gov,
UT,House,Suzanne Harrison,32,D,Salt Lake,801-999-8047,,sharrison@le.utah.gov,
UT,House,Craig Hall,33,R,Salt Lake,801-573-1774,,chall@le.utah.gov,
UT,House,Karen Kwan,34,D,Salt Lake,385-249-0683,,kkwan@le.utah.gov,
UT,House,Mark A. Wheatley,35,D,Salt Lake,801-556-4862,,markwheatley@le.utah.gov,
UT,House,Patrice M. Arent,36,D,Salt Lake,801-326-1515,,parent@le.utah.gov,
UT,House,Carol Spackman Moss,37,D,Salt Lake,801-647-8764,,csmoss@le.utah.gov,
UT,House,Eric K. Hutchings,38,R,Salt Lake,,,ehutchings@le.utah.gov,
UT,House,James A. Dunnigan,39,R,Salt Lake,801-840-1800,,jdunnigan@le.utah.gov,
UT,House,Stephanie Pitcher,40,D,Salt Lake,385-272-8032,,spitcher@le.utah.gov,
UT,House,Mark A. Strong,41,R,Salt Lake,385-275-5682,,mstrong@le.utah.gov,
UT,House,Kim F. Coleman,42,R,Salt Lake,801-865-8970,,kimcoleman@le.utah.gov,
UT,House,Cheryl K. Acton,43,R,Salt Lake,801-809-3571,,cacton@le.utah.gov,
UT,House,Andrew Stoddard,44,D,Salt Lake,385-256-3281,,astoddard@le.utah.gov,
UT,House,Steve Eliason,45,R,Salt Lake,801-673-4748,,seliason@le.utah.gov,
UT,House,Marie H. Poulson,46,D,Salt Lake,,,mariepoulson@le.utah.gov,
UT,House,Steve R. Christiansen,47,R,Salt Lake,385-465-4492,,schristiansen@le.utah.gov,
UT,House,Keven J. Stratton,48,R,Utah,801-836-6010,,kstratton@le.utah.gov,
UT,House,Robert M. Spendlove,49,R,Salt Lake,801-560-5394,,rspendlove@le.utah.gov,
UT,House,Susan Pulsipher,50,R,Salt Lake,,,susanpulsipher@le.utah.gov,
UT,House,Jeffrey D. Stenquist,51,R,Salt Lake,385-272-9437,,jstenquist@le.utah.gov,
UT,House,Candice B. Pierucci,52,R,Salt Lake,385-414-1488,,cpierucci@le.utah.gov,
UT,House,Kera Birkeland,53,R,"Daggett, Duchesne, Morgan, Rich, Summit",385-266-2677,,kbirkeland@le.utah.gov,
UT,House,Tim Quinn,54,R,"Summit, Wasatch",435-709-2854,,tquinn@le.utah.gov,
UT,House,Scott H. Chew,55,R,"Duchesne, Uintah",435-630-0221,,scottchew@le.utah.gov,
UT,House,Kay J. Christofferson,56,R,Utah,801-592-5709,,kchristofferson@le.utah.gov,
UT,House,Jon Hawkins,57,R,Utah,801-368-2534,,jhawkins@le.utah.gov,
UT,House,Derrin R. Owens,58,R,"Juab, Sanpete",435-851-1284,,derrinowens@le.utah.gov,
UT,House,Val L. Peterson,59,R,Utah,,,vpeterson@le.utah.gov,
UT,House,Brad M. Daw,60,R,Utah,801-850-3608,,bdaw@le.utah.gov,
UT,House,Marsha Judkins,61,R,Utah,801-326-1528,,mjudkins@le.utah.gov,
UT,House,Travis M. Seegmiller,62,R,Washington,435-236-5118,,tseegmiller@le.utah.gov,
UT,House,Adam Robertson,63,R,Utah,385-325-2877,,adamrobertson@le.utah.gov,
UT,House,Norman K. Thurston,64,R,Utah,801-477-5348,,normthurston@le.utah.gov,
UT,House,Francis D. Gibson,65,R,Utah,801-361-0082,,fgibson@le.utah.gov,
UT,House,Michael K. McKell,66,R,Utah,801-798-9000,,mmckell@le.utah.gov,
UT,House,Marc K. Roberts,67,R,Utah,801-210-0155,,mroberts@le.utah.gov,
UT,House,Merrill F. Nelson,68,R,"Beaver, Juab, Millard, Tooele, Utah",801-971-2172,,mnelson@le.utah.gov,
UT,House,Christine F Watkins,69,R,"Carbon, Duchesne, Emery, Grand",435-650-1969,,christinewatkins@le.utah.gov,
UT,House,Carl R. Albrecht,70,R,"Emery, Grand, Sanpete, Sevier",435-979-6578,,carlalbrecht@le.utah.gov,
UT,House,Bradley G. Last,71,R,"Iron, Washington",,,blast@le.utah.gov,
UT,House,Rex P. Shipp,72,R,Iron,,,rshipp@le.utah.gov,
UT,House,Phil Lyman,73,R,"Beaver, Garfield, Kane, Piute, San Juan, Sevier, Wayne",435-459-2800,,plyman@le.utah.gov,
UT,House,V. Lowry Snow,74,R,Washington,435-628-3688,,vlsnow@le.utah.gov,
UT,House,Walt Brooks,75,R,Washington,435-414-2005,,wbrooks@le.utah.gov,
UT,Senate,Luz Escamilla,1,D,Salt Lake,801-550-6434,,lescamilla@le.utah.gov,
UT,Senate,Derek L. Kitchen,2,D,Salt Lake,801-674-6141,,dkitchen@le.utah.gov,
UT,Senate,Gene Davis,3,D,Salt Lake,801-647-8924,,gdavis@le.utah.gov,
UT,Senate,Jani Iwamoto,4,D,Salt Lake,801-580-8414,,jiwamoto@le.utah.gov,
UT,Senate,Karen Mayne,5,D,Salt Lake,,,kmayne@le.utah.gov,
UT,Senate,Wayne A. Harper,6,R,Salt Lake,,,wharper@le.utah.gov,
UT,Senate,Deidre M. Henderson,7,R,Utah,801-538-1035,,dhenderson@le.utah.gov,
UT,Senate,Kathleen Riebe,8,D,Salt Lake,385-222-1742,,kriebe@le.utah.gov,
UT,Senate,Kirk A. Cullimore,9,R,Salt Lake,801-571-6611,,kcullimore@le.utah.gov,
UT,Senate,Lincoln Fillmore,10,R,Salt Lake,385-831-8902,,lfillmore@le.utah.gov,
UT,Senate,Daniel McCay,11,R,"Salt Lake, Utah",801-810-4110,,dmccay@le.utah.gov,
UT,Senate,Daniel W. Thatcher,12,R,"Salt Lake, Tooele",801-759-4746,,dthatcher@le.utah.gov,
UT,Senate,Jacob L. Anderegg,13,R,"Salt Lake, Utah",801-901-3580,,janderegg@le.utah.gov,
UT,Senate,Daniel Hemmert,14,R,Utah,801-380-8262,,dhemmert@le.utah.gov,
UT,Senate,Keith Grover,15,R,Utah,801-319-0170,,keithgrover@le.utah.gov,
UT,Senate,Curtis S. Bramble,16,R,"Utah, Wasatch",801-361-5802,,curt@cbramble.com,
UT,Senate,Scott D. Sandall,17,R,"Box Elder, Cache, Tooele",435-279-7551,,ssandall@le.utah.gov,
UT,Senate,Ann Millner,18,R,"Davis, Morgan, Weber",801-900-3897,,amillner@le.utah.gov,
UT,Senate,Allen M. Christensen,19,R,"Morgan, Summit, Weber",,,achristensen@le.utah.gov,
UT,Senate,David G. Buxton,20,R,"Davis, Weber",801-707-7095,,gbuxton@le.utah.gov,
UT,Senate,Jerry W. Stevenson,21,R,Davis,801-544-1211,,jwstevenson@le.utah.gov,
UT,Senate,J. Stuart Adams,22,R,Davis,,,jsadams@le.utah.gov,
UT,Senate,Todd Weiler,23,R,"Davis, Salt Lake",801-599-9823,,tweiler@le.utah.gov,
UT,Senate,Ralph Okerlund,24,R,"Beaver, Garfield, Juab, Kane, Millard, Piute, Sanpete, Sevier, Utah, Wayne",435-527-3370,,rokerlund@le.utah.gov,
UT,Senate,Lyle W. Hillyard,25,R,"Cache, Rich",435-757-0194,,lhillyard@le.utah.gov,
UT,Senate,Ronald Winterton,26,R,"Daggett, Duchesne, Summit,  Uintah, Wasatch",435-299-8531,,rwinterton@le.utah.gov,
UT,Senate,David P. Hinkins,27,R,"Carbon, Emery, Grand, San Juan, Utah, Wasatch",435-748-2828,,dhinkins@le.utah.gov,
UT,Senate,Evan J. Vickers,28,R,"Beaver, Iron, Washington",435-586-9651,,evickers@le.utah.gov,
UT,Senate,Don L. Ipson,29,R,Washington,435-674-6301,,dipson@le.utah.gov,